Data science in the Humanities
…
Two aspects render emuR query system extremly powerful: the use of regular expressions (including negation and other extensions) and the combinated query on different levels of the database.

Some more complex queries:

regular expression, operator =~, words beginning with Aarbecht...

sl = query(db, query = "[ ORT =~ 'Aarbecht.*']")
sl

## # A tibble: 41 x 16
##    labels start   end db_uuid session bundle start_item_id end_item_id level
##    <chr>  <dbl> <dbl> <chr>   <chr>   <chr>          <int>       <int> <chr>
##  1 Aarbe  130.  680. c87793 0000    AARBE             1           1 ORT  
##  2 Aarbe  120.  840. c87793 0000    AARBE             1           1 ORT  
##  3 Aarbe  120. 1120. c87793 0000    AARBE             1           1 ORT  
##  4 Aarbe 3350. 4540. c87793 0000    AARBE             3           3 ORT  
##  5 Aarbe  120.  960. c87793 0000    AARBE             1           1 ORT  
##  6 Aarbe  130. 1040. c87793 0000    AARBE             1           1 ORT  
##  7 Aarbe  130. 1230. c87793 0000    AARBE             1           1 ORT  
##  8 Aarbe  120.  970. c87793 0000    AARBE             1           1 ORT  
##  9 Aarbe  130. 1290. c87793 0000    AARBE             1           1 ORT  
## 10 Aarbe  120. 1300. c87793 0000    AARBE             1           1 ORT  
## #  with 31 more rows, and 7 more variables: attribute <chr>,
## #   start_item_seq_idx <int>, end_item_seq_idx <int>, type <chr>,
## #   sample_start <int>, sample_end <int>, sample_rate <int>
…
